{
  "autoHelp": true,
  "autoVersion": true,
  "booleanDefault": null,
  "description": null,
  "flags": {
    "baseUrl": "https://gitlab.com/api/v4",
    "filePath": "signatures.json",
    "projectId": "982",
    "ref": "master",
    "token": "<mock-access-token>",
    "verbose": false
  },
  "help": "lib/__tests__/__fixtures__/help"
}
